Winsorizing · BazerData.jl
…
Winsorize multiple variables

# gstats winsor wage age hours, cuts(0.5 99.5) replace
var_to_winsorize = ["bill_length_mm", "bill_depth_mm", "flipper_length_mm"]
transform!(df,
    var_to_winsorize .=> (x -> winsorize(x, probs=(0.1, 0.9)) ) .=> var_to_winsorize .* "_w")
show(IOContext(stdout, :limit => true, :displaysize => (20, 100)), df, allcols=true, allrows=false)

344×11 DataFrame
 Row │ species    island     bill_length_mm  bill_depth_mm  flipper_length_mm  body_mass_g  sex       body_mass_g_w  bill_length_mm_w  bill_depth_mm_w  flipper_length_mm_w
     │ String15   String15   Float64?        Float64?       Int64?             Int64?       String7?  Union…?        Float64?          Float64?         Union…?
─────┼──────────────────────────────────────────────────────────────────────────────────────────────────────────────────────────────────────────────────────────────────────
   1 │ Adelie     Torgersen            39.1           18.7                181         3750  male             3750                39.1             18.7                185.0
   2 │ Adelie     Torgersen            39.5           17.4                186         3800  female           3800                39.5             17.4                186
   3 │ Adelie     Torgersen            40.3           18.0                195         3250  female           3300.0              40.3             18.0                195
   4 │ Adelie     Torgersen       missing        missing              missing      missing  missing       missing           missing          missing              missing
   5 │ Adelie     Torgersen            36.7           19.3                193         3450  female           3450                36.7             19.3                193
   6 │ Adelie     Torgersen            39.3           20.6                190         3650  male             3650                39.3             19.5                190
  ⋮  │     ⋮          ⋮            ⋮               ⋮                ⋮               ⋮          ⋮            ⋮               ⋮                 ⋮                  ⋮
 340 │ Chinstrap  Dream                55.8           19.8                207         4000  male             4000                50.8             19.5                207
 341 │ Chinstrap  Dream                43.5           18.1                202         3400  female           3400                43.5             18.1                202
 342 │ Chinstrap  Dream                49.6           18.2                193         3775  male             3775                49.6             18.2                193
 343 │ Chinstrap  Dream                50.8           19.0                210         4100  male             4100                50.8             19.0                210
 344 │ Chinstrap  Dream                50.2           18.7                198         3775  female           3775                50.2             18.7                198
                                                                                                                                                            333 rows omitted
Winsorize on one side only

# left-winsorizing only, at 1th percentile;
# cap noi gstats winsor wage, cuts(1 100); gstats winsor wage, cuts(1 100) s(_w2)
transform!(df, :body_mass_g => (x -> winsorize(x, probs=(0.1, 1)) ) => :body_mass_g_w )
show(IOContext(stdout, :limit => true, :displaysize => (20, 100)), df, allcols=true, allrows=false)

344×11 DataFrame
 Row │ species    island     bill_length_mm  bill_depth_mm  flipper_length_mm  body_mass_g  sex       body_mass_g_w  bill_length_mm_w  bill_depth_mm_w  flipper_length_mm_w
     │ String15   String15   Float64?        Float64?       Int64?             Int64?       String7?  Union…?        Float64?          Float64?         Union…?
─────┼──────────────────────────────────────────────────────────────────────────────────────────────────────────────────────────────────────────────────────────────────────
   1 │ Adelie     Torgersen            39.1           18.7                181         3750  male             3750                39.1             18.7                185.0
   2 │ Adelie     Torgersen            39.5           17.4                186         3800  female           3800                39.5             17.4                186
   3 │ Adelie     Torgersen            40.3           18.0                195         3250  female           3300.0              40.3             18.0                195
   4 │ Adelie     Torgersen       missing        missing              missing      missing  missing       missing           missing          missing              missing
   5 │ Adelie     Torgersen            36.7           19.3                193         3450  female           3450                36.7             19.3                193
   6 │ Adelie     Torgersen            39.3           20.6                190         3650  male             3650                39.3             19.5                190
  ⋮  │     ⋮          ⋮            ⋮               ⋮                ⋮               ⋮          ⋮            ⋮               ⋮                 ⋮                  ⋮
 340 │ Chinstrap  Dream                55.8           19.8                207         4000  male             4000                50.8             19.5                207
 341 │ Chinstrap  Dream                43.5           18.1                202         3400  female           3400                43.5             18.1                202
 342 │ Chinstrap  Dream                49.6           18.2                193         3775  male             3775                49.6             18.2                193
 343 │ Chinstrap  Dream                50.8           19.0                210         4100  male             4100                50.8             19.0                210
 344 │ Chinstrap  Dream                50.2           18.7                198         3775  female           3775                50.2             18.7                198
                                                                                                                                                            333 rows omitted
…
